<svg width="23" height="32" viewBox="0 0 23 32" fill="none" xmlns="http://www.w3.org/2000/svg">
<path d="M18.7201 0L12.6934 9.01339H15.68L22.4001 0H18.7201Z" fill="#428BC1"/>
<path d="M15.6804 0L9.70703 9.01339H12.6937L18.7204 0H15.6804Z" fill="#E8E8E8"/>
<path d="M12.6931 0L6.71973 9.01339H9.70641L15.6798 0H12.6931Z" fill="#ED4C5C"/>
<path d="M11.2006 32.0009C17.2684 32.0009 22.1873 27.082 22.1873 21.0142C22.1873 14.9464 17.2684 10.0275 11.2006 10.0275C5.1328 10.0275 0.213867 14.9464 0.213867 21.0142C0.213867 27.082 5.1328 32.0009 11.2006 32.0009Z" fill="#D3976E"/>
<path d="M5.70754 6.98633C5.44087 6.98633 5.22754 7.19966 5.22754 7.46633V11.9464C5.22754 12.213 5.44087 12.4264 5.70754 12.4264H16.6943C16.9609 12.4264 17.1743 12.213 17.1743 11.9464V7.46633C17.1743 7.19966 16.9609 6.98633 16.6943 6.98633H5.70754ZM16.2143 10.5064C16.2143 10.773 16.0009 10.9864 15.7343 10.9864H6.72088C6.45421 10.9864 6.24088 10.773 6.24088 10.5064V8.47967C6.24088 8.213 6.45421 7.99967 6.72088 7.99967H15.7343C16.0009 7.99967 16.2143 8.213 16.2143 8.47967V10.5064Z" fill="#D3976E"/>
<path opacity="0.5" d="M1.7599 22.2928C1.7599 16.3195 6.3466 11.4661 12.2133 11.0394C11.9466 11.0394 11.6266 10.9861 11.36 10.9861C5.75993 10.9861 1.22656 15.5194 1.22656 21.1728C1.22656 22.8262 1.65323 24.4262 2.34657 25.8128C1.97323 24.6928 1.7599 23.5195 1.7599 22.2928Z" fill="#3E4347"/>
<path opacity="0.33" d="M15.4135 29.4935C20.3735 26.1868 21.8669 19.7335 18.9869 14.7201L19.4669 15.3601C22.5602 19.9468 21.2802 26.1868 16.6402 29.3335C15.2535 30.2935 13.7068 30.8269 12.1602 30.9869C13.3335 30.6669 14.4002 30.1869 15.4135 29.4935Z" fill="white"/>
<path d="M6.72004 9.01339H9.70673L3.68002 0H0L6.72004 9.01339Z" fill="#ED4C5C"/>
<path d="M9.70737 9.01339H12.6941L6.72068 0H3.68066L9.70737 9.01339Z" fill="#E8E8E8"/>
<path opacity="0.5" d="M11.6799 1.49329L10.1865 3.7333L13.7065 9.01333H15.6799L16.2132 8.26666L11.6799 1.49329Z" fill="#3E4347"/>
<path d="M12.6931 9.01339H15.6798L9.70641 0H6.71973L12.6931 9.01339Z" fill="#428BC1"/>
<path opacity="0.5" d="M10.9341 15.7343C9.81408 15.7343 8.90741 16.6409 8.90741 17.7076H7.4674C7.4674 17.8676 7.41406 18.0276 7.41406 18.1876H9.44074C9.44074 17.0676 10.3474 16.1609 11.4674 16.1609C11.8941 16.1609 12.2674 16.3209 12.5874 16.5343C12.2141 16.1076 11.6274 15.7343 10.9341 15.7343ZM14.0808 21.2276C14.9341 20.481 15.4674 19.4143 15.4674 18.2409C15.4674 17.0143 14.9341 15.8943 14.0274 15.1476C14.6141 15.8409 14.9874 16.7476 14.9874 17.7076C14.9874 18.8809 14.4541 20.0009 13.6008 20.6943C14.4541 21.441 14.9874 22.5076 14.9874 23.681C14.9874 25.8677 13.1741 27.681 10.9874 27.681C10.0274 27.681 9.12074 27.3077 8.4274 26.721C9.17407 27.5743 10.2407 28.161 11.5208 28.161C13.7074 28.161 15.5208 26.3477 15.5208 24.161C15.4674 23.041 14.9341 21.9743 14.0808 21.2276Z" fill="#3E4347"/>
<path opacity="0.33" d="M11.467 14.2398C12.427 14.2398 13.3336 14.6131 14.027 15.1998C13.2803 14.3464 12.2136 13.7598 10.9336 13.7598C8.74694 13.7598 6.93359 15.5731 6.93359 17.7598H7.46693C7.7336 15.7864 9.38694 14.2398 11.467 14.2398ZM13.4403 18.2398C13.4403 17.5465 13.1203 16.9598 12.587 16.5865C12.8003 16.9065 12.9603 17.2798 12.9603 17.7065C12.9603 18.8265 12.0536 19.7331 10.9336 19.7331V21.7598C11.0936 21.7598 11.2536 21.8132 11.4136 21.8132V20.2665C12.5336 20.2665 13.4403 19.3598 13.4403 18.2398ZM11.467 26.2398C12.587 26.2398 13.4936 25.3332 13.4936 24.2132C13.4936 23.5198 13.1736 22.9332 12.6403 22.5598C12.8536 22.8798 13.0136 23.2532 13.0136 23.6798C13.0136 24.7998 12.107 25.7065 10.987 25.7065C10.5603 25.7065 10.1869 25.5465 9.86695 25.3332C10.1869 25.9198 10.7736 26.2398 11.467 26.2398ZM9.01361 24.2665C8.96027 24.1065 8.96027 23.9465 8.96027 23.7865H6.93359C6.93359 25.0132 7.46693 26.1332 8.3736 26.8799C7.78693 26.1865 7.4136 25.2798 7.4136 24.3198L9.01361 24.2665Z" fill="white"/>
</svg>
