<svg width="24" height="24" viewBox="0 0 24 24" fill="none" xmlns="http://www.w3.org/2000/svg">
<circle cx="12" cy="12" r="12" fill="white"/>
<path d="M15.6826 11.1881C16.5196 11.0705 17.164 10.3529 17.1658 9.48346C17.1658 8.62666 16.5412 7.91626 15.7222 7.78186" stroke="#40BE45" stroke-width="0.9" stroke-linecap="round" stroke-linejoin="round"/>
<path d="M16.7871 13.2C17.5977 13.3212 18.1635 13.605 18.1635 14.19C18.1635 14.5926 17.8971 14.8542 17.4663 15.0186" stroke="#40BE45" stroke-width="0.9" stroke-linecap="round" stroke-linejoin="round"/>
<path fill-rule="evenodd" clip-rule="evenodd" d="M12.0822 13.4485C10.1538 13.4485 8.50684 13.7407 8.50684 14.9077C8.50684 16.0741 10.1436 16.3747 12.0822 16.3747C14.0106 16.3747 15.657 16.0855 15.657 14.9179C15.657 13.7503 14.0208 13.4485 12.0822 13.4485Z" stroke="#40BE45" stroke-width="0.9" stroke-linecap="round" stroke-linejoin="round"/>
<path fill-rule="evenodd" clip-rule="evenodd" d="M12.0819 11.7828C13.3473 11.7828 14.3733 10.7574 14.3733 9.49135C14.3733 8.22595 13.3473 7.19995 12.0819 7.19995C10.8165 7.19995 9.79054 8.22595 9.79054 9.49135C9.78574 10.7526 10.8039 11.7786 12.0651 11.7828H12.0819Z" stroke="#40BE45" stroke-width="0.9" stroke-linecap="round" stroke-linejoin="round"/>
<path d="M8.48076 11.1881C7.64316 11.0705 6.99936 10.3529 6.99756 9.48346C6.99756 8.62666 7.62216 7.91626 8.44116 7.78186" stroke="#40BE45" stroke-width="0.9" stroke-linecap="round" stroke-linejoin="round"/>
<path d="M7.3764 13.2C6.5658 13.3212 6 13.605 6 14.19C6 14.5926 6.2664 14.8542 6.6972 15.0186" stroke="#40BE45" stroke-width="0.9" stroke-linecap="round" stroke-linejoin="round"/>
</svg>
