<svg width="316" height="507" viewBox="0 0 316 507" fill="none" xmlns="http://www.w3.org/2000/svg">
<path d="M213.439 192.719L209.733 193.926L210.363 195.861L212.312 196.45L213.439 192.719ZM213.424 314.326L212.298 310.595L210.349 311.183L209.719 313.119L213.424 314.326ZM-161.022 314.576L-157.319 313.363L-157.962 311.399L-159.949 310.829L-161.022 314.576ZM-161.037 192.47L-159.963 196.216L-157.976 195.646L-157.333 193.681L-161.037 192.47ZM212.312 196.45C236.819 203.852 254.657 226.608 254.657 253.521H262.451C262.451 223.077 242.27 197.357 214.566 188.989L212.312 196.45ZM254.657 253.521C254.657 280.438 236.812 303.198 212.298 310.595L214.55 318.057C242.263 309.694 262.451 283.97 262.451 253.521H254.657ZM209.719 313.119C184.566 390.31 111.89 446.103 26.1602 446.103V453.897C115.354 453.897 190.96 395.846 217.129 315.534L209.719 313.119ZM26.1602 446.103C-59.4787 446.103 -132.093 390.428 -157.319 313.363L-164.726 315.788C-138.48 395.968 -62.9398 453.897 26.1602 453.897V446.103ZM-159.949 310.829C-184.87 303.688 -203.103 280.729 -203.103 253.521H-210.897C-210.897 284.298 -190.271 310.249 -162.096 318.322L-159.949 310.829ZM-203.103 253.521C-203.103 226.318 -184.877 203.361 -159.963 196.216L-162.112 188.724C-190.279 196.802 -210.897 222.748 -210.897 253.521H-203.103ZM-157.333 193.681C-132.121 116.594 -59.4952 60.8971 26.1602 60.8971V53.1029C-62.957 53.1029 -138.509 111.054 -164.741 191.258L-157.333 193.681ZM26.1602 60.8971C111.906 60.8971 184.595 116.712 209.733 193.926L217.145 191.513C190.989 111.176 115.372 53.1029 26.1602 53.1029V60.8971Z" fill="url(#paint0_linear_1_1099)"/>
<g filter="url(#filter0_f_1_1099)">
<path d="M183.961 310.152H-128.397C-102.799 376.712 -42.5111 423.459 27.782 423.459C98.075 423.459 158.363 376.712 183.961 310.152Z" stroke="url(#paint1_linear_1_1099)" stroke-width="6.12468"/>
</g>
<g filter="url(#filter1_f_1_1099)">
<path d="M213.439 192.719L206.954 194.831L208.057 198.218L211.467 199.248L213.439 192.719ZM213.424 314.326L211.454 307.797L208.043 308.826L206.94 312.213L213.424 314.326ZM-161.022 314.576L-154.541 312.454L-155.666 309.016L-159.144 308.02L-161.022 314.576ZM-161.037 192.47L-159.157 199.025L-155.68 198.028L-154.555 194.59L-161.037 192.47ZM211.467 199.248C234.774 206.288 251.734 227.933 251.734 253.521H265.374C265.374 221.753 244.315 194.921 215.411 186.191L211.467 199.248ZM251.734 253.521C251.734 279.113 234.768 300.761 211.454 307.797L215.394 320.855C244.307 312.13 265.374 285.295 265.374 253.521H251.734ZM206.94 312.213C182.169 388.234 110.59 443.18 26.1602 443.18V456.82C116.654 456.82 193.358 397.922 219.908 316.439L206.94 312.213ZM26.1602 443.18C-58.1808 443.18 -129.697 388.35 -154.541 312.454L-167.504 316.697C-140.875 398.046 -64.2378 456.82 26.1602 456.82V443.18ZM-159.144 308.02C-182.845 301.228 -200.18 279.39 -200.18 253.521H-213.82C-213.82 285.637 -192.297 312.709 -162.901 321.132L-159.144 308.02ZM-200.18 253.521C-200.18 227.656 -182.851 205.821 -159.157 199.025L-162.917 185.914C-192.305 194.342 -213.82 221.41 -213.82 253.521H-200.18ZM-154.555 194.59C-129.725 118.671 -58.197 63.82 26.1602 63.82V50.18C-64.2552 50.18 -140.905 108.976 -167.519 190.35L-154.555 194.59ZM26.1602 63.82C110.607 63.82 182.196 118.787 206.954 194.831L219.924 190.608C193.387 109.101 116.671 50.18 26.1602 50.18V63.82Z" fill="url(#paint2_linear_1_1099)"/>
</g>
<g filter="url(#filter2_f_1_1099)">
<rect x="-180.548" y="216.472" width="412.65" height="74.0654" rx="37.0327" stroke="url(#paint3_linear_1_1099)" stroke-width="3.89712"/>
</g>
<path d="M213.439 192.719L209.733 193.926L210.363 195.861L212.312 196.45L213.439 192.719ZM213.424 314.326L212.298 310.595L210.349 311.183L209.719 313.119L213.424 314.326ZM-161.022 314.576L-157.319 313.363L-157.962 311.399L-159.949 310.829L-161.022 314.576ZM-161.037 192.47L-159.963 196.216L-157.976 195.646L-157.333 193.681L-161.037 192.47ZM212.312 196.45C236.819 203.852 254.657 226.608 254.657 253.521H262.451C262.451 223.077 242.27 197.357 214.566 188.989L212.312 196.45ZM254.657 253.521C254.657 280.438 236.812 303.198 212.298 310.595L214.55 318.057C242.263 309.694 262.451 283.97 262.451 253.521H254.657ZM209.719 313.119C184.566 390.31 111.89 446.103 26.1602 446.103V453.897C115.354 453.897 190.96 395.846 217.129 315.534L209.719 313.119ZM26.1602 446.103C-59.4787 446.103 -132.093 390.428 -157.319 313.363L-164.726 315.788C-138.48 395.968 -62.9398 453.897 26.1602 453.897V446.103ZM-159.949 310.829C-184.87 303.688 -203.103 280.729 -203.103 253.521H-210.897C-210.897 284.298 -190.271 310.249 -162.096 318.322L-159.949 310.829ZM-203.103 253.521C-203.103 226.318 -184.877 203.361 -159.963 196.216L-162.112 188.724C-190.279 196.802 -210.897 222.748 -210.897 253.521H-203.103ZM-157.333 193.681C-132.121 116.594 -59.4952 60.8971 26.1602 60.8971V53.1029C-62.957 53.1029 -138.509 111.054 -164.741 191.258L-157.333 193.681ZM26.1602 60.8971C111.906 60.8971 184.595 116.712 209.733 193.926L217.145 191.513C190.989 111.176 115.372 53.1029 26.1602 53.1029V60.8971Z" fill="url(#paint4_linear_1_1099)"/>
<path d="M27.1784 417.131C-39.7881 417.131 -97.3349 376.843 -122.484 319.209H176.84C151.692 376.843 94.1449 417.131 27.1784 417.131Z" stroke="url(#paint5_linear_1_1099)" stroke-width="2.92284"/>
<g filter="url(#filter3_f_1_1099)">
<path d="M183.961 197.864H-128.397C-102.799 131.305 -42.5111 84.5579 27.782 84.5579C98.075 84.5579 158.363 131.305 183.961 197.864Z" stroke="url(#paint6_linear_1_1099)" stroke-width="2.92284"/>
</g>
<path d="M27.1784 91.3815C-39.3233 91.3815 -96.5086 131.23 -121.738 188.328H176.095C150.866 131.23 93.6802 91.3815 27.1784 91.3815Z" stroke="url(#paint7_linear_1_1099)" stroke-width="3.89712"/>
<rect x="-180.548" y="216.472" width="412.65" height="74.0654" rx="37.0327" stroke="url(#paint8_linear_1_1099)" stroke-width="7.79424"/>
<rect x="-180.548" y="216.472" width="412.65" height="74.0654" rx="37.0327" stroke="url(#paint9_linear_1_1099)" stroke-width="7.79424"/>
<path fill-rule="evenodd" clip-rule="evenodd" d="M-161.53 315.007C-187.801 307.051 -206.923 282.676 -206.923 253.841C-206.923 225.097 -187.921 200.785 -161.779 192.751C-136.157 113.959 -62.0432 57 25.3916 57C112.706 57 186.736 113.802 212.455 192.425C239.162 200.108 258.697 224.696 258.697 253.841C258.697 283.076 239.041 307.727 212.207 315.329C186.262 393.56 112.427 450 25.3916 450C-61.7625 450 -135.681 393.406 -161.53 315.007ZM179.05 317.748H-124.705C-99.8118 376.986 -41.1848 418.592 27.1722 418.592C95.5293 418.592 154.156 376.986 179.05 317.748ZM178.777 189.935C153.73 131.04 95.2805 89.7369 27.1722 89.7369C-40.936 89.7369 -99.385 131.04 -124.432 189.935H178.777ZM-179.693 253.842C-179.693 233.566 -163.236 217.13 -142.934 217.13H194.708C215.01 217.13 231.468 233.566 231.468 253.842C231.468 274.118 215.01 290.554 194.708 290.554H-142.934C-163.236 290.554 -179.693 274.118 -179.693 253.842Z" fill="url(#paint10_linear_1_1099)"/>
<defs>
<filter id="filter0_f_1_1099" x="-148.168" y="291.778" width="351.899" height="150.055" filterUnits="userSpaceOnUse" color-interpolation-filters="sRGB">
<feFlood flood-opacity="0" result="BackgroundImageFix"/>
<feBlend mode="normal" in="SourceGraphic" in2="BackgroundImageFix" result="shape"/>
<feGaussianBlur stdDeviation="7.65585" result="effect1_foregroundBlur_1_1099"/>
</filter>
<filter id="filter1_f_1_1099" x="-263.916" y="0.0843315" width="579.385" height="506.831" filterUnits="userSpaceOnUse" color-interpolation-filters="sRGB">
<feFlood flood-opacity="0" result="BackgroundImageFix"/>
<feBlend mode="normal" in="SourceGraphic" in2="BackgroundImageFix" result="shape"/>
<feGaussianBlur stdDeviation="25.0479" result="effect1_foregroundBlur_1_1099"/>
</filter>
<filter id="filter2_f_1_1099" x="-204.413" y="192.607" width="460.382" height="121.797" filterUnits="userSpaceOnUse" color-interpolation-filters="sRGB">
<feFlood flood-opacity="0" result="BackgroundImageFix"/>
<feBlend mode="normal" in="SourceGraphic" in2="BackgroundImageFix" result="shape"/>
<feGaussianBlur stdDeviation="10.9587" result="effect1_foregroundBlur_1_1099"/>
</filter>
<filter id="filter3_f_1_1099" x="-145.837" y="67.7848" width="347.238" height="146.853" filterUnits="userSpaceOnUse" color-interpolation-filters="sRGB">
<feFlood flood-opacity="0" result="BackgroundImageFix"/>
<feBlend mode="normal" in="SourceGraphic" in2="BackgroundImageFix" result="shape"/>
<feGaussianBlur stdDeviation="7.65585" result="effect1_foregroundBlur_1_1099"/>
</filter>
<linearGradient id="paint0_linear_1_1099" x1="-225.884" y1="289.738" x2="393.729" y2="318.319" gradientUnits="userSpaceOnUse">
<stop stop-color="#050FFD" stop-opacity="0"/>
<stop offset="0.0464305" stop-color="#050FFD" stop-opacity="0"/>
<stop offset="0.245025" stop-color="white"/>
<stop offset="0.351177" stop-color="#9DA1FF"/>
<stop offset="0.512896" stop-color="white"/>
<stop offset="0.664675" stop-color="#B0B0B0"/>
<stop offset="0.790763" stop-color="#050FFD" stop-opacity="0"/>
</linearGradient>
<linearGradient id="paint1_linear_1_1099" x1="-128.397" y1="366.805" x2="168.157" y2="366.805" gradientUnits="userSpaceOnUse">
<stop offset="0.010138" stop-color="#5505D8"/>
<stop offset="0.485098" stop-color="#DE6FF0"/>
<stop offset="1" stop-color="#2B26FF"/>
</linearGradient>
<linearGradient id="paint2_linear_1_1099" x1="-234.877" y1="160.223" x2="258.527" y2="166.508" gradientUnits="userSpaceOnUse">
<stop stop-color="#050FFD"/>
<stop offset="0.362124" stop-color="#470852"/>
<stop offset="0.427169" stop-color="#7C00B7"/>
<stop offset="0.653835" stop-color="#A500B4"/>
<stop offset="0.838542" stop-color="#1620FF"/>
</linearGradient>
<linearGradient id="paint3_linear_1_1099" x1="-292.779" y1="222.896" x2="358.316" y2="298.095" gradientUnits="userSpaceOnUse">
<stop stop-color="#332BBF"/>
<stop offset="0.0989323" stop-color="#0035F0" stop-opacity="0.99"/>
<stop offset="0.293886" stop-color="#4DBBF9" stop-opacity="0.92"/>
<stop offset="0.679413" stop-color="#201BFC" stop-opacity="0.6"/>
<stop offset="0.878748" stop-color="#0017E3"/>
<stop offset="1" stop-color="#00069B"/>
</linearGradient>
<linearGradient id="paint4_linear_1_1099" x1="-225.884" y1="289.738" x2="393.729" y2="318.319" gradientUnits="userSpaceOnUse">
<stop stop-color="#5E0260"/>
<stop offset="0.0593751" stop-color="#110933"/>
<stop offset="0.245025" stop-color="#05154E" stop-opacity="0"/>
<stop offset="0.351177" stop-color="#C376FF" stop-opacity="0"/>
<stop offset="0.512896" stop-color="#512674" stop-opacity="0"/>
<stop offset="0.656776" stop-color="#020818" stop-opacity="0.65"/>
<stop offset="0.80071" stop-color="#471250"/>
<stop offset="0.85811" stop-color="#1E24A8"/>
</linearGradient>
<linearGradient id="paint5_linear_1_1099" x1="-124.699" y1="368.17" x2="163.688" y2="368.17" gradientUnits="userSpaceOnUse">
<stop stop-color="#D5D7EA" stop-opacity="0"/>
<stop offset="0.33754" stop-color="#F2A3FF"/>
<stop offset="1" stop-color="#050110" stop-opacity="0"/>
</linearGradient>
<linearGradient id="paint6_linear_1_1099" x1="-128.397" y1="141.211" x2="168.157" y2="141.211" gradientUnits="userSpaceOnUse">
<stop offset="0.010138" stop-color="#3849D9"/>
<stop offset="0.485098" stop-color="#DE6FF0"/>
<stop offset="1" stop-color="#4B19DB"/>
</linearGradient>
<linearGradient id="paint7_linear_1_1099" x1="-124.699" y1="139.855" x2="163.688" y2="139.855" gradientUnits="userSpaceOnUse">
<stop offset="0.010138" stop-color="#3849D9" stop-opacity="0"/>
<stop offset="0.224171" stop-color="#F1A5FD"/>
<stop offset="1" stop-opacity="0"/>
</linearGradient>
<linearGradient id="paint8_linear_1_1099" x1="-214.145" y1="244.828" x2="265.486" y2="291.075" gradientUnits="userSpaceOnUse">
<stop stop-color="#050FFD" stop-opacity="0"/>
<stop offset="0.172657" stop-color="#C882FF" stop-opacity="0"/>
<stop offset="0.427169" stop-color="#D5D6FF"/>
<stop offset="0.541208" stop-color="white"/>
<stop offset="0.653835" stop-color="#9C9FEB"/>
<stop offset="0.838542" stop-color="#1620FF" stop-opacity="0"/>
</linearGradient>
<linearGradient id="paint9_linear_1_1099" x1="-214.145" y1="244.828" x2="265.486" y2="291.075" gradientUnits="userSpaceOnUse">
<stop stop-color="#000AFC"/>
<stop offset="0.172657" stop-color="#160225"/>
<stop offset="0.341929" stop-color="#861488"/>
<stop offset="0.510615" stop-color="#FDA0FF"/>
<stop offset="0.745755" stop-color="#4C0E52" stop-opacity="0.85"/>
<stop offset="0.935118" stop-color="#0009DC"/>
</linearGradient>
<linearGradient id="paint10_linear_1_1099" x1="25.7288" y1="31.4805" x2="25.7288" y2="511.757" gradientUnits="userSpaceOnUse">
<stop stop-color="white"/>
<stop offset="0.0545381" stop-color="#161616"/>
<stop offset="0.293316" stop-color="#030303"/>
<stop offset="0.449128" stop-color="#02000C"/>
<stop offset="0.599113" stop-color="#0D0D0D"/>
<stop offset="0.795002" stop-color="#040404"/>
<stop offset="1" stop-color="#1B1A1A"/>
</linearGradient>
</defs>
</svg>
